<?xml version="1.0" encoding="UTF-8"?>
<ModuleFile xmlns:xsi="http://www.w3.org/2001/XMLSchema-instance">
    <UiMod name="whom" version="2.8.2" date="2011-04-09" >
        
        <Author name="tzs"/>
        <Description text="count classes and archetypes and list players"/>
        <VersionSettings gameVersion="1.4.1" />
        
        <Dependencies>
            <Dependency name="EA_ChatWindow"/>
            <Dependency name="LibSlash" />
        </Dependencies>
        
        <Files>
            <File name="whom.lua" />
        </Files>
        
        <OnInitialize>
            <CallFunction name="whom.initialize" />
        </OnInitialize>
        <OnUpdate/>
        <OnShutdown/>
    </UiMod>
</ModuleFile>
